<svg xmlns="http://www.w3.org/2000/svg" width="16" height="16" viewBox="0 0 16 16">
  <g id="Rectangle_333" data-name="Rectangle 333" stroke="rgba(0,0,0,0.2)" stroke-width="1.4">
    <path d="M0,0H12a4,4,0,0,1,4,4v8a4,4,0,0,1-4,4H4a4,4,0,0,1-4-4V0A0,0,0,0,1,0,0Z" stroke="none"/>
    <path d="M1.4.7H12A3.3,3.3,0,0,1,15.3,4v8A3.3,3.3,0,0,1,12,15.3H4A3.3,3.3,0,0,1,.7,12V1.4A.7.7,0,0,1,1.4.7Z" fill="none"/>
  </g>
</svg>
