<svg xmlns="http://www.w3.org/2000/svg" viewBox="0 0 24 24">
    <path d="M5 3c-1.103 0-2 .897-2 2v10c0-1.474.81-2.75 2-3.443V9h14.002L19 19h-4a3.96 3.96 0 01-.557 2H19c1.103 0 2-.897 2-2V5c0-1.103-.897-2-2-2H5zm0 2h14.002v2H5V5zm10 7a2 2 0 00-1.861 2.725l-1.84 2.3A2 2 0 0011 17a2 2 0 00-.518.068L8.93 15.516A2 2 0 009 15a2 2 0 00-2-2 2 2 0 00-2 2 2 2 0 00.139.727l-2.92 3.648 1.562 1.25 2.92-3.65A2 2 0 007 17a2 2 0 00.518-.068l1.552 1.552A2 2 0 009 19a2 2 0 002 2 2 2 0 002-2 2 2 0 00-.139-.727l1.844-2.302c.097.014.194.029.295.029a2 2 0 100-4z"/>
</svg>
