<svg xmlns="http://www.w3.org/2000/svg" viewBox="0 0 24 24">
    <path d="M11 1C9.355 1 8 2.355 8 4H4c-1.093 0-2 .907-2 2v6h2c.565 0 1 .435 1 1s-.435 1-1 1H2v6c0 1.093.907 2 2 2h6v-2c0-.565.435-1 1-1s1 .435 1 1v2h6c1.093 0 2-.907 2-2v-4c1.645 0 3-1.355 3-3s-1.355-3-3-3V6c0-1.093-.907-2-2-2h-4c0-1.645-1.355-3-3-3zm0 2c.565 0 1 .435 1 1v2h6v6h2c.565 0 1 .435 1 1s-.435 1-1 1h-2v6h-4c0-1.645-1.355-3-3-3s-3 1.355-3 3H4v-4c1.645 0 3-1.355 3-3s-1.355-3-3-3V6h6V4c0-.565.435-1 1-1z"/>
</svg>
